(mirage) rambo@zb1804:~/Downloads/mirage$ sudo ./mirage_launcher ble_sniff INTERFACE=microbit:/dev/ttyUSB0 INTERFACEA=microbit:/dev/ttyUSB1 INTERFACEB=microbit:/dev/ttyUSB2 CRACK_KEY=yes PCAP_FILE=ble_sniff_`date '+%Y-%m-%dT%H%M'`.pcap
[INFO] Module ble_sniff loaded !
[SUCCESS] PCAP file successfully loaded (DLT : 256) ! 
[SUCCESS] BTLEJack device /dev/ttyUSB0 successfully instantiated (firmware version : 3.14)
[INFO] Custom Mirage Firmware used ! Advertisements sniffing and jamming will be supported.
[SUCCESS] BTLEJack device /dev/ttyUSB1 successfully instantiated (firmware version : 3.14)
[INFO] Custom Mirage Firmware used ! Advertisements sniffing and jamming will be supported.
[SUCCESS] BTLEJack device /dev/ttyUSB2 successfully instantiated (firmware version : 3.14)
[INFO] Custom Mirage Firmware used ! Advertisements sniffing and jamming will be supported.
[PACKET] [ CH:37|CLK:1652550111.116984|RSSI:0dBm ] << BLE - Advertisement Packet | type=CONNECT_REQ | srcAddr=62:E6:2A:66:7C:FD | dstAddr=34:AB:95:F6:11:BE | accessAddress=0x4e6a6667| crcInit=0xd190c| channelMap=0x1fffffffff| hopInterval=39| hopIncrement=14 >>

┌Sniffed Connection─────────┬──────────────┬──────────────┬───────────────┐
│ Access Address │ CRCInit  │ Channel Map  │ Hop Interval │ Hop Increment │
├────────────────┼──────────┼──────────────┼──────────────┼───────────────┤
│ 0x67666a4e     │ 0x c190d │ 0x1fffffffff │ 39           │ 14            │
└────────────────┴──────────┴──────────────┴──────────────┴───────────────┘
[PACKET] [ CH:32|CLK:1652550111.145817|RSSI:0dBm ] << BLE - Control PDU Packet | type=LL_VERSION_IND | data=0860000e03 >>
[PACKET] [ CH:28|CLK:1652550111.192692|RSSI:0dBm ] << BLE - Control PDU Packet | type=LL_FEATURE_REQ | data=df00000000000000 >>
[PACKET] [ CH:5|CLK:1652550111.240954|RSSI:0dBm ] << BLE - Control PDU Packet | type=LL_VERSION_IND | data=091d00d307 >>
[PACKET] [ CH:19|CLK:1652550111.296362|RSSI:0dBm ] << BLE - Control PDU Packet | type=??? | data=060006000000f401000a000500ffffffffffffffffffff >>
[PACKET] [ CH:33|CLK:1652550111.337912|RSSI:0dBm ] << BLE - Read By Group Type Request Packet >>
[PACKET] [ CH:10|CLK:1652550111.387213|RSSI:0dBm ] << BLE - Read By Group Type Request Packet >>
[PACKET] [ CH:24|CLK:1652550111.433719|RSSI:0dBm ] << BLE - Control PDU Packet | type=LL_CONNECTION_UPDATE_REQ | data=02020006000000f4010d00 >>
[PACKET] [ CH:15|CLK:1652550111.539163|RSSI:0dBm ] << BLE - Read By Group Type Request Packet >>
[PACKET] [ CH:29|CLK:1652550111.594113|RSSI:0dBm ] << BLE - Read By Group Type Response Packet | length=20 | data=2800ffff4b9131c3c9c5cc8f9e45b51f01c2af4f >>
[PACKET] [ CH:6|CLK:1652550111.640472|RSSI:0dBm ] << BLE - Read By Type Request >>
[PACKET] [ CH:34|CLK:1652550111.736922|RSSI:0dBm ] << BLE - Error Response Packet | req=0x8 | handle=0x1 | ecode=0xa >>
[PACKET] [ CH:25|CLK:1652550111.784952|RSSI:0dBm ] << BLE - Read By Type Request >>
[PACKET] [ CH:2|CLK:1652550111.804111|RSSI:0dBm ] << BLE - Read By Type Response | data=070200200300052a >>
[PACKET] [ CH:16|CLK:1652550111.823063|RSSI:0dBm ] << BLE - Read By Type Request >>
[PACKET] [ CH:30|CLK:1652550111.841221|RSSI:0dBm ] << BLE - Read By Type Request >>
[PACKET] [ CH:7|CLK:1652550111.858177|RSSI:0dBm ] << BLE - Error Response Packet | req=0x8 | handle=0x3 | ecode=0xa >>
[PACKET] [ CH:21|CLK:1652550111.878151|RSSI:0dBm ] << BLE - Find Information Request Packet >>
[PACKET] [ CH:35|CLK:1652550111.896099|RSSI:0dBm ] << BLE - Find Information Response Packet | format=0x1 | data=04000229 >>
[PACKET] [ CH:12|CLK:1652550111.915106|RSSI:0dBm ] << BLE - Find Information Request Packet >>
[PACKET] [ CH:26|CLK:1652550111.93382|RSSI:0dBm ] << BLE - Error Response Packet | req=0x4 | handle=0x5 | ecode=0xa >>
[PACKET] [ CH:3|CLK:1652550111.95262|RSSI:0dBm ] << BLE - Read By Type Request >>
[PACKET] [ CH:17|CLK:1652550111.9709|RSSI:0dBm ] << BLE - Error Response Packet | req=0x8 | handle=0x14 | ecode=0xa >>
[PACKET] [ CH:31|CLK:1652550111.991534|RSSI:0dBm ] << BLE - Read By Type Request >>
[PACKET] [ CH:8|CLK:1652550112.015156|RSSI:0dBm ] << BLE - Read By Type Response | data=071500021600002a1700021800012a1900021a00a62a >>
[PACKET] [ CH:22|CLK:1652550112.034816|RSSI:0dBm ] << BLE - Read By Type Request >>
[PACKET] [ CH:36|CLK:1652550112.055558|RSSI:0dBm ] << BLE - Error Response Packet | req=0x8 | handle=0x1a | ecode=0xa >>
[PACKET] [ CH:13|CLK:1652550112.072831|RSSI:0dBm ] << BLE - Find Information Request Packet >>
[PACKET] [ CH:27|CLK:1652550112.090041|RSSI:0dBm ] << BLE - Error Response Packet | req=0x4 | handle=0x1b | ecode=0xa >>
[PACKET] [ CH:4|CLK:1652550112.110394|RSSI:0dBm ] << BLE - Read By Type Request >>
[INFO] Mirage process terminated !
(mirage) rambo@zb1804:~/Downloads/mirage$ sudo ./mirage_launcher ble_sniff INTERFACE=microbit:/dev/ttyUSB0 INTERFACEA=microbit:/dev/ttyUSB1 INTERFACEB=microbit:/dev/ttyUSB2 CRACK_KEY=yes PCAP_FILE=ble_sniff_`date '+%Y-%m-%dT%H%M'`.pcap
[INFO] Module ble_sniff loaded !
[SUCCESS] PCAP file successfully loaded (DLT : 256) ! 
[SUCCESS] BTLEJack device /dev/ttyUSB0 successfully instantiated (firmware version : 3.14)
[INFO] Custom Mirage Firmware used ! Advertisements sniffing and jamming will be supported.
[SUCCESS] BTLEJack device /dev/ttyUSB1 successfully instantiated (firmware version : 3.14)
[INFO] Custom Mirage Firmware used ! Advertisements sniffing and jamming will be supported.
[SUCCESS] BTLEJack device /dev/ttyUSB2 successfully instantiated (firmware version : 3.14)
[INFO] Custom Mirage Firmware used ! Advertisements sniffing and jamming will be supported.
[PACKET] [ CH:37|CLK:1652550170.976176|RSSI:0dBm ] << BLE - Advertisement Packet | type=CONNECT_REQ | srcAddr=62:E6:2A:66:7C:FD | dstAddr=34:AB:95:F6:11:BE | accessAddress=0x4643c151| crcInit=0x25eb9e| channelMap=0x   ffffff9| hopInterval=39| hopIncrement=6 >>

┌Sniffed Connection─────────┬──────────────┬──────────────┬───────────────┐
│ Access Address │ CRCInit  │ Channel Map  │ Hop Interval │ Hop Increment │
├────────────────┼──────────┼──────────────┼──────────────┼───────────────┤
│ 0x51c14346     │ 0x9eeb25 │ 0x   ffffff9 │ 39           │ 6             │
└────────────────┴──────────┴──────────────┴──────────────┴───────────────┘
[PACKET] [ CH:27|CLK:1652550170.995398|RSSI:0dBm ] << BLE - Control PDU Packet | type=LL_VERSION_IND | data=0860000e03 >>
[PACKET] [ CH:12|CLK:1652550171.015922|RSSI:0dBm ] << BLE - Control PDU Packet | type=LL_FEATURE_REQ | data=df00000000000000 >>
[PACKET] [ CH:18|CLK:1652550171.065452|RSSI:0dBm ] << BLE - Control PDU Packet | type=LL_VERSION_IND | data=091d00d307 >>
[PACKET] [ CH:6|CLK:1652550171.16892|RSSI:0dBm ] << BLE - Control PDU Packet | type=??? | data=060006000000f401000b000500ffffffffffffffffffff >>
[PACKET] [ CH:12|CLK:1652550171.212767|RSSI:0dBm ] << BLE - Read By Group Type Request Packet >>
[PACKET] [ CH:5|CLK:1652550171.268535|RSSI:0dBm ] << BLE - Control PDU Packet | type=LL_CONNECTION_UPDATE_REQ | data=02050006000000f4010d00 >>
[PACKET] [ CH:11|CLK:1652550171.299944|RSSI:0dBm ] << BLE - Read By Group Type Request Packet >>
[PACKET] [ CH:17|CLK:1652550171.357162|RSSI:0dBm ] << BLE - Read By Group Type Response Packet | length=20 | data=2800ffff4b9131c3c9c5cc8f9e45b51f01c2af4f >>
[PACKET] [ CH:23|CLK:1652550171.39467|RSSI:0dBm ] << BLE - Read By Type Request >>
[PACKET] [ CH:5|CLK:1652550171.451879|RSSI:0dBm ] << BLE - Error Response Packet | req=0x8 | handle=0x1 | ecode=0xa >>
[PACKET] [ CH:11|CLK:1652550171.50155|RSSI:0dBm ] << BLE - Read By Type Request >>
[PACKET] [ CH:4|CLK:1652550171.552917|RSSI:0dBm ] << BLE - Read By Type Response | data=070200200300052a >>
[PACKET] [ CH:16|CLK:1652550171.615212|RSSI:0dBm ] << BLE - Read By Type Request >>
[PACKET] [ CH:22|CLK:1652550171.628502|RSSI:0dBm ] << BLE - Error Response Packet | req=0x8 | handle=0x3 | ecode=0xa >>
[PACKET] [ CH:10|CLK:1652550171.641078|RSSI:0dBm ] << BLE - Find Information Request Packet >>
[PACKET] [ CH:9|CLK:1652550171.654915|RSSI:0dBm ] << BLE - Find Information Response Packet | format=0x1 | data=04000229 >>
[PACKET] [ CH:15|CLK:1652550171.670527|RSSI:0dBm ] << BLE - Find Information Request Packet >>
[PACKET] [ CH:21|CLK:1652550171.683185|RSSI:0dBm ] << BLE - Error Response Packet | req=0x4 | handle=0x5 | ecode=0xa >>
[PACKET] [ CH:27|CLK:1652550171.696581|RSSI:0dBm ] << BLE - Read By Type Request >>
[PACKET] [ CH:9|CLK:1652550171.709414|RSSI:0dBm ] << BLE - Error Response Packet | req=0x8 | handle=0x14 | ecode=0xa >>
[PACKET] [ CH:4|CLK:1652550171.722914|RSSI:0dBm ] << BLE - Read By Type Request >>
[PACKET] [ CH:8|CLK:1652550171.740574|RSSI:0dBm ] << BLE - Read By Type Response | data=071500021600002a1700021800012a1900021a00a62a >>
[PACKET] [ CH:14|CLK:1652550171.755349|RSSI:0dBm ] << BLE - Read By Type Request >>
[PACKET] [ CH:20|CLK:1652550171.767859|RSSI:0dBm ] << BLE - Error Response Packet | req=0x8 | handle=0x1a | ecode=0xa >>
[PACKET] [ CH:26|CLK:1652550171.780692|RSSI:0dBm ] << BLE - Find Information Request Packet >>
[PACKET] [ CH:8|CLK:1652550171.793657|RSSI:0dBm ] << BLE - Error Response Packet | req=0x4 | handle=0x1b | ecode=0xa >>
[PACKET] [ CH:3|CLK:1652550171.806817|RSSI:0dBm ] << BLE - Read By Type Request >>
[PACKET] [ CH:7|CLK:1652550171.819685|RSSI:0dBm ] << BLE - Error Response Packet | req=0x8 | handle=0x28 | ecode=0xa >>
[PACKET] [ CH:13|CLK:1652550171.833145|RSSI:0dBm ] << BLE - Read By Type Request >>
[PACKET] [ CH:19|CLK:1652550171.851044|RSSI:0dBm ] << BLE - Read By Type Response | data=152900182a00a8261b3607eaf5b78846e1363e48b5be >>
[PACKET] [ CH:25|CLK:1652550171.864006|RSSI:0dBm ] << BLE - Read By Type Request >>
[PACKET] [ CH:7|CLK:1652550171.877523|RSSI:0dBm ] << BLE - Error Response Packet | req=0x8 | handle=0x2a | ecode=0xa >>
[PACKET] [ CH:6|CLK:1652550171.890309|RSSI:0dBm ] << BLE - Find Information Request Packet >>
[PACKET] [ CH:18|CLK:1652550171.902509|RSSI:0dBm ] << BLE - Find Information Response Packet | format=0x1 | data=2b000229 >>
[PACKET] [ CH:24|CLK:1652550171.916317|RSSI:0dBm ] << BLE - Find Information Request Packet >>
[PACKET] [ CH:6|CLK:1652550171.928944|RSSI:0dBm ] << BLE - Error Response Packet | req=0x4 | handle=0x2c | ecode=0xa >>
[PACKET] [ CH:12|CLK:1652550171.946006|RSSI:0dBm ] << BLE - Control PDU Packet | type=??? | data=270027000000f4010031000b00ffffffffffffffffffff >>
[PACKET] [ CH:5|CLK:1652550171.957737|RSSI:0dBm ] << BLE - Exchange MTU Request Packet >>
[PACKET] [ CH:11|CLK:1652550171.977122|RSSI:0dBm ] << BLE - Control PDU Packet | type=LL_CONNECTION_UPDATE_REQ | data=02260027000000f4013300 >>
[INFO] Mirage process terminated !
(mirage) rambo@zb1804:~/Downloads/mirage$ sudo ./mirage_launcher 

███╗   ███╗██╗██████╗  █████╗  ██████╗ ███████╗
████╗ ████║██║██╔══██╗██╔══██╗██╔════╝ ██╔════╝
██╔████╔██║██║██████╔╝███████║██║  ███╗█████╗
██║╚██╔╝██║██║██╔══██╗██╔══██║██║   ██║██╔══╝
██║ ╚═╝ ██║██║██║  ██║██║  ██║╚██████╔╝███████╗
╚═╝     ╚═╝╚═╝╚═╝  ╚═╝╚═╝  ╚═╝ ╚═════╝ ╚══════╝
	
 ~~> load ble_sniff             
[INFO] Module ble_sniff loaded !
 << ble_sniff >>~~> set INTERFACE microbit:/dev/ttyUSB0
 << ble_sniff >>~~> set INTERFACEA microbit:/dev/ttyUSB1
 << ble_sniff >>~~> set INTERFACEB microbit:/dev/ttyUSB2
 << ble_sniff >>~~> set CRACK_KEY yes              
 << ble_sniff >>~~> set PCAP_FILE ble_sniff_20220514_2044.pcap
 << ble_sniff >>~~> run
[SUCCESS] PCAP file successfully loaded (DLT : 256) ! 
[SUCCESS] BTLEJack device /dev/ttyUSB0 successfully instantiated (firmware version : 3.14)
[INFO] Custom Mirage Firmware used ! Advertisements sniffing and jamming will be supported.
[SUCCESS] BTLEJack device /dev/ttyUSB1 successfully instantiated (firmware version : 3.14)
[INFO] Custom Mirage Firmware used ! Advertisements sniffing and jamming will be supported.
[SUCCESS] BTLEJack device /dev/ttyUSB2 successfully instantiated (firmware version : 3.14)
[INFO] Custom Mirage Firmware used ! Advertisements sniffing and jamming will be supported.
[PACKET] [ CH:37|CLK:1652550281.943258|RSSI:0dBm ] << BLE - Advertisement Packet | type=CONNECT_REQ | srcAddr=62:E6:2A:66:7C:FD | dstAddr=34:AB:95:F6:11:BE | accessAddress=0x61172d1a| crcInit=0x2f7a3e| channelMap=0x1fffffffff| hopInterval=39| hopIncrement=16 >>

┌Sniffed Connection─────────┬──────────────┬──────────────┬───────────────┐
│ Access Address │ CRCInit  │ Channel Map  │ Hop Interval │ Hop Increment │
├────────────────┼──────────┼──────────────┼──────────────┼───────────────┤
│ 0x1a2d1761     │ 0x3e7a2f │ 0x1fffffffff │ 39           │ 16            │
└────────────────┴──────────┴──────────────┴──────────────┴───────────────┘
[PACKET] [ CH:23|CLK:1652550281.966588|RSSI:0dBm ] << BLE - Control PDU Packet | type=LL_VERSION_IND | data=0860000e03 >>
[PACKET] [ CH:32|CLK:1652550282.014161|RSSI:0dBm ] << BLE - Control PDU Packet | type=LL_FEATURE_REQ | data=df00000000000000 >>
[PACKET] [ CH:11|CLK:1652550282.061122|RSSI:0dBm ] << BLE - Control PDU Packet | type=LL_VERSION_IND | data=091d00d307 >>
[PACKET] [ CH:27|CLK:1652550282.113999|RSSI:0dBm ] << BLE - Control PDU Packet | type=??? | data=060006000000f401000a000500ffffffffffffffffffff >>
[PACKET] [ CH:6|CLK:1652550282.158963|RSSI:0dBm ] << BLE - Read By Group Type Request Packet >>
[PACKET] [ CH:22|CLK:1652550282.206488|RSSI:0dBm ] << BLE - Control PDU Packet | type=LL_CONNECTION_UPDATE_REQ | data=02050006000000f4010c00 >>
[PACKET] [ CH:1|CLK:1652550282.254653|RSSI:0dBm ] << BLE - Read By Group Type Request Packet >>
[PACKET] [ CH:17|CLK:1652550282.314594|RSSI:0dBm ] << BLE - Read By Group Type Response Packet | length=20 | data=2800ffff4b9131c3c9c5cc8f9e45b51f01c2af4f >>
[PACKET] [ CH:33|CLK:1652550282.359503|RSSI:0dBm ] << BLE - Read By Type Request >>
[PACKET] [ CH:12|CLK:1652550282.409716|RSSI:0dBm ] << BLE - Error Response Packet | req=0x8 | handle=0x1 | ecode=0xa >>
[PACKET] [ CH:28|CLK:1652550282.459522|RSSI:0dBm ] << BLE - Read By Type Request >>
[PACKET] [ CH:7|CLK:1652550282.511065|RSSI:0dBm ] << BLE - Read By Type Response | data=070200200300052a >>
[PACKET] [ CH:2|CLK:1652550282.587591|RSSI:0dBm ] << BLE - Read By Type Request >>
[PACKET] [ CH:18|CLK:1652550282.606994|RSSI:0dBm ] << BLE - Error Response Packet | req=0x8 | handle=0x3 | ecode=0xa >>
[PACKET] [ CH:34|CLK:1652550282.624593|RSSI:0dBm ] << BLE - Find Information Request Packet >>
[PACKET] [ CH:13|CLK:1652550282.642668|RSSI:0dBm ] << BLE - Find Information Response Packet | format=0x1 | data=04000229 >>
[PACKET] [ CH:29|CLK:1652550282.661646|RSSI:0dBm ] << BLE - Find Information Request Packet >>
[PACKET] [ CH:8|CLK:1652550282.679094|RSSI:0dBm ] << BLE - Error Response Packet | req=0x4 | handle=0x5 | ecode=0xa >>
[PACKET] [ CH:24|CLK:1652550282.696892|RSSI:0dBm ] << BLE - Read By Type Request >>
[FAIL] Connection lost !
 << ble_sniff >>~~> run
[PACKET] [ CH:37|CLK:1652550302.340334|RSSI:0dBm ] << BLE - Advertisement Packet | type=CONNECT_REQ | srcAddr=62:E6:2A:66:7C:FD | dstAddr=34:AB:95:F6:11:BE | accessAddress=0x4bd76fcc| crcInit=0x4ed6df| channelMap=0x1807ffffff| hopInterval=39| hopIncrement=15 >>
[PACKET] [ CH:37|CLK:1652550302.340334|RSSI:0dBm ] << BLE - Advertisement Packet | type=CONNECT_REQ | srcAddr=62:E6:2A:66:7C:FD | dstAddr=34:AB:95:F6:11:BE | accessAddress=0x4bd76fcc| crcInit=0x4ed6df| channelMap=0x1807ffffff| hopInterval=39| hopIncrement=15 >>

┌Sniffed Connection─────────┬──────────────┬──────────────┬───────────────┐
│ Access Address │ CRCInit  │ Channel Map  │ Hop Interval │ Hop Increment │
├────────────────┼──────────┼──────────────┼──────────────┼───────────────┤
│ 0xcc6fd74b     │ 0xdfd64e │ 0x1807ffffff │ 39           │ 15            │
└────────────────┴──────────┴──────────────┴──────────────┴───────────────┘
[PACKET] [ CH:25|CLK:1652550302.361868|RSSI:0dBm ] << BLE - Control PDU Packet | type=LL_VERSION_IND | data=0860000e03 >>
[PACKET] [ CH:25|CLK:1652550302.361868|RSSI:0dBm ] << BLE - Control PDU Packet | type=LL_VERSION_IND | data=0860000e03 >>
[PACKET] [ CH:1|CLK:1652550302.397575|RSSI:0dBm ] << BLE - Control PDU Packet | type=LL_VERSION_IND | data=091d00d307 >>
[PACKET] [ CH:1|CLK:1652550302.397575|RSSI:0dBm ] << BLE - Control PDU Packet | type=LL_VERSION_IND | data=091d00d307 >>
[PACKET] [ CH:8|CLK:1652550302.446144|RSSI:0dBm ] << BLE - Control PDU Packet | type=LL_FEATURE_REQ | data=df00000000000000 >>
[PACKET] [ CH:8|CLK:1652550302.446144|RSSI:0dBm ] << BLE - Control PDU Packet | type=LL_FEATURE_REQ | data=df00000000000000 >>
[PACKET] [ CH:23|CLK:1652550302.494233|RSSI:0dBm ] << BLE - Control PDU Packet | type=LL_FEATURE_RSP | data=df00000000000000 >>
[PACKET] [ CH:23|CLK:1652550302.494233|RSSI:0dBm ] << BLE - Control PDU Packet | type=LL_FEATURE_RSP | data=df00000000000000 >>
[PACKET] [ CH:1|CLK:1652550302.541954|RSSI:0dBm ] << BLE - Control PDU Packet | type=LL_FEATURE_RSP | data=ff00000000000000 >>
[PACKET] [ CH:1|CLK:1652550302.541954|RSSI:0dBm ] << BLE - Control PDU Packet | type=LL_FEATURE_RSP | data=ff00000000000000 >>
[PACKET] [ CH:16|CLK:1652550302.59545|RSSI:0dBm ] << BLE - Control PDU Packet | type=??? | data=060006000000f401000c000500ffffffffffffffffffff >>
[PACKET] [ CH:16|CLK:1652550302.59545|RSSI:0dBm ] << BLE - Control PDU Packet | type=??? | data=060006000000f401000c000500ffffffffffffffffffff >>
[PACKET] [ CH:2|CLK:1652550302.63951|RSSI:0dBm ] << BLE - Read By Group Type Request Packet >>
[PACKET] [ CH:2|CLK:1652550302.63951|RSSI:0dBm ] << BLE - Read By Group Type Request Packet >>
[PACKET] [ CH:9|CLK:1652550302.699942|RSSI:0dBm ] << BLE - Control PDU Packet | type=LL_CONNECTION_UPDATE_REQ | data=02050006000000f4010e00 >>
[PACKET] [ CH:9|CLK:1652550302.699942|RSSI:0dBm ] << BLE - Control PDU Packet | type=LL_CONNECTION_UPDATE_REQ | data=02050006000000f4010e00 >>
[PACKET] [ CH:24|CLK:1652550302.738178|RSSI:0dBm ] << BLE - Read By Group Type Request Packet >>
[PACKET] [ CH:24|CLK:1652550302.738178|RSSI:0dBm ] << BLE - Read By Group Type Request Packet >>
[PACKET] [ CH:2|CLK:1652550302.787298|RSSI:0dBm ] << BLE - Read By Group Type Response Packet | length=20 | data=2800ffff4b9131c3c9c5cc8f9e45b51f01c2af4f >>
[PACKET] [ CH:2|CLK:1652550302.787298|RSSI:0dBm ] << BLE - Read By Group Type Response Packet | length=20 | data=2800ffff4b9131c3c9c5cc8f9e45b51f01c2af4f >>
[PACKET] [ CH:17|CLK:1652550302.826647|RSSI:0dBm ] << BLE - Read By Type Request >>
[PACKET] [ CH:17|CLK:1652550302.826647|RSSI:0dBm ] << BLE - Read By Type Request >>
[PACKET] [ CH:3|CLK:1652550302.875887|RSSI:0dBm ] << BLE - Error Response Packet | req=0x8 | handle=0x1 | ecode=0xa >>
[PACKET] [ CH:3|CLK:1652550302.875887|RSSI:0dBm ] << BLE - Error Response Packet | req=0x8 | handle=0x1 | ecode=0xa >>
[PACKET] [ CH:10|CLK:1652550302.932744|RSSI:0dBm ] << BLE - Read By Type Request >>
[PACKET] [ CH:10|CLK:1652550302.932744|RSSI:0dBm ] << BLE - Read By Type Request >>
[PACKET] [ CH:25|CLK:1652550302.984781|RSSI:0dBm ] << BLE - Read By Type Response | data=070200200300052a >>
[PACKET] [ CH:25|CLK:1652550302.984781|RSSI:0dBm ] << BLE - Read By Type Response | data=070200200300052a >>
[PACKET] [ CH:19|CLK:1652550303.083323|RSSI:0dBm ] << BLE - Read By Type Request >>
[PACKET] [ CH:19|CLK:1652550303.083323|RSSI:0dBm ] << BLE - Read By Type Request >>
[PACKET] [ CH:5|CLK:1652550303.105126|RSSI:0dBm ] << BLE - Error Response Packet | req=0x8 | handle=0x3 | ecode=0xa >>
[PACKET] [ CH:5|CLK:1652550303.105126|RSSI:0dBm ] << BLE - Error Response Packet | req=0x8 | handle=0x3 | ecode=0xa >>
[PACKET] [ CH:12|CLK:1652550303.132248|RSSI:0dBm ] << BLE - Find Information Request Packet >>
[PACKET] [ CH:12|CLK:1652550303.132248|RSSI:0dBm ] << BLE - Find Information Request Packet >>
[PACKET] [ CH:35|CLK:1652550303.156015|RSSI:0dBm ] << BLE - Find Information Response Packet | format=0x1 | data=04000229 >>
[PACKET] [ CH:35|CLK:1652550303.156015|RSSI:0dBm ] << BLE - Find Information Response Packet | format=0x1 | data=04000229 >>
[PACKET] [ CH:5|CLK:1652550303.179848|RSSI:0dBm ] << BLE - Find Information Response Packet | format=0x1 | data=04000229 >>
[PACKET] [ CH:5|CLK:1652550303.179848|RSSI:0dBm ] << BLE - Find Information Response Packet | format=0x1 | data=04000229 >>
[PACKET] [ CH:20|CLK:1652550303.207791|RSSI:0dBm ] << BLE - Find Information Request Packet >>
[PACKET] [ CH:20|CLK:1652550303.207791|RSSI:0dBm ] << BLE - Find Information Request Packet >>
[PACKET] [ CH:35|CLK:1652550303.232368|RSSI:0dBm ] << BLE - Error Response Packet | req=0x4 | handle=0x5 | ecode=0xa >>
[PACKET] [ CH:35|CLK:1652550303.232368|RSSI:0dBm ] << BLE - Error Response Packet | req=0x4 | handle=0x5 | ecode=0xa >>
[PACKET] [ CH:13|CLK:1652550303.248991|RSSI:0dBm ] << BLE - Read By Type Request >>
[PACKET] [ CH:13|CLK:1652550303.248991|RSSI:0dBm ] << BLE - Read By Type Request >>
[PACKET] [ CH:36|CLK:1652550303.266764|RSSI:0dBm ] << BLE - Error Response Packet | req=0x8 | handle=0x14 | ecode=0xa >>
[PACKET] [ CH:36|CLK:1652550303.266764|RSSI:0dBm ] << BLE - Error Response Packet | req=0x8 | handle=0x14 | ecode=0xa >>
[PACKET] [ CH:6|CLK:1652550303.283289|RSSI:0dBm ] << BLE - Read By Type Request >>
[PACKET] [ CH:6|CLK:1652550303.283289|RSSI:0dBm ] << BLE - Read By Type Request >>
[PACKET] [ CH:21|CLK:1652550303.303095|RSSI:0dBm ] << BLE - Read By Type Response | data=071500021600002a1700021800012a1900021a00a62a >>
[PACKET] [ CH:21|CLK:1652550303.303095|RSSI:0dBm ] << BLE - Read By Type Response | data=071500021600002a1700021800012a1900021a00a62a >>
[PACKET] [ CH:14|CLK:1652550303.316375|RSSI:0dBm ] << BLE - Read By Type Request >>
[PACKET] [ CH:14|CLK:1652550303.316375|RSSI:0dBm ] << BLE - Read By Type Request >>
[PACKET] [ CH:7|CLK:1652550303.328709|RSSI:0dBm ] << BLE - Error Response Packet | req=0x8 | handle=0x1a | ecode=0xa >>
[PACKET] [ CH:7|CLK:1652550303.328709|RSSI:0dBm ] << BLE - Error Response Packet | req=0x8 | handle=0x1a | ecode=0xa >>
[PACKET] [ CH:22|CLK:1652550303.34071|RSSI:0dBm ] << BLE - Find Information Request Packet >>
[PACKET] [ CH:22|CLK:1652550303.34071|RSSI:0dBm ] << BLE - Find Information Request Packet >>
 << ble_sniff >>~~> [PACKET] [ CH:0|CLK:1652550303.356249|RSSI:0dBm ] << BLE - Error Response Packet | req=0x4 | handle=0x1b | ecode=0xa >>
[PACKET] [ CH:0|CLK:1652550303.356249|RSSI:0dBm ] << BLE - Error Response Packet | req=0x4 | handle=0x1b | ecode=0xa >>
[PACKET] [ CH:15|CLK:1652550303.368877|RSSI:0dBm ] << BLE - Read By Type Request >>
[PACKET] [ CH:15|CLK:1652550303.368877|RSSI:0dBm ] << BLE - Read By Type Request >>
[PACKET] [ CH:1|CLK:1652550303.382997|RSSI:0dBm ] << BLE - Error Response Packet | req=0x8 | handle=0x28 | ecode=0xa >>
[PACKET] [ CH:1|CLK:1652550303.382997|RSSI:0dBm ] << BLE - Error Response Packet | req=0x8 | handle=0x28 | ecode=0xa >>
[PACKET] [ CH:8|CLK:1652550303.39547|RSSI:0dBm ] << BLE - Read By Type Request >>
[PACKET] [ CH:8|CLK:1652550303.39547|RSSI:0dBm ] << BLE - Read By Type Request >>
[PACKET] [ CH:23|CLK:1652550303.412106|RSSI:0dBm ] << BLE - Read By Type Response | data=152900182a00a8261b3607eaf5b78846e1363e48b5be >>
[PACKET] [ CH:23|CLK:1652550303.412106|RSSI:0dBm ] << BLE - Read By Type Response | data=152900182a00a8261b3607eaf5b78846e1363e48b5be >>
[PACKET] [ CH:1|CLK:1652550303.425241|RSSI:0dBm ] << BLE - Read By Type Request >>
[PACKET] [ CH:1|CLK:1652550303.425241|RSSI:0dBm ] << BLE - Read By Type Request >>
[PACKET] [ CH:16|CLK:1652550303.437643|RSSI:0dBm ] << BLE - Error Response Packet | req=0x8 | handle=0x2a | ecode=0xa >>
[PACKET] [ CH:16|CLK:1652550303.437643|RSSI:0dBm ] << BLE - Error Response Packet | req=0x8 | handle=0x2a | ecode=0xa >>
[PACKET] [ CH:2|CLK:1652550303.450692|RSSI:0dBm ] << BLE - Find Information Request Packet >>
[PACKET] [ CH:2|CLK:1652550303.450692|RSSI:0dBm ] << BLE - Find Information Request Packet >>
[PACKET] [ CH:9|CLK:1652550303.463948|RSSI:0dBm ] << BLE - Find Information Response Packet | format=0x1 | data=2b000229 >>
[PACKET] [ CH:9|CLK:1652550303.463948|RSSI:0dBm ] << BLE - Find Information Response Packet | format=0x1 | data=2b000229 >>
[PACKET] [ CH:24|CLK:1652550303.477449|RSSI:0dBm ] << BLE - Find Information Request Packet >>
[PACKET] [ CH:24|CLK:1652550303.477449|RSSI:0dBm ] << BLE - Find Information Request Packet >>
[PACKET] [ CH:2|CLK:1652550303.490157|RSSI:0dBm ] << BLE - Error Response Packet | req=0x4 | handle=0x2c | ecode=0xa >>
[PACKET] [ CH:2|CLK:1652550303.490157|RSSI:0dBm ] << BLE - Error Response Packet | req=0x4 | handle=0x2c | ecode=0xa >>
[PACKET] [ CH:17|CLK:1652550303.505721|RSSI:0dBm ] << BLE - Control PDU Packet | type=??? | data=270027000000f4010037001400ffffffffffffffffffff >>
[PACKET] [ CH:17|CLK:1652550303.505721|RSSI:0dBm ] << BLE - Control PDU Packet | type=??? | data=270027000000f4010037001400ffffffffffffffffffff >>
[PACKET] [ CH:3|CLK:1652550303.52105|RSSI:0dBm ] << BLE - Control PDU Packet | type=??? | data=270027000000f4010037001400ffffffffffffffffffff >>
[PACKET] [ CH:3|CLK:1652550303.52105|RSSI:0dBm ] << BLE - Control PDU Packet | type=??? | data=270027000000f4010037001400ffffffffffffffffffff >>
[PACKET] [ CH:10|CLK:1652550303.53242|RSSI:0dBm ] << BLE - Exchange MTU Request Packet >>
[PACKET] [ CH:10|CLK:1652550303.53242|RSSI:0dBm ] << BLE - Exchange MTU Request Packet >>
[PACKET] [ CH:25|CLK:1652550303.553179|RSSI:0dBm ] << BLE - Control PDU Packet | type=LL_CONNECTION_UPDATE_REQ | data=02020027000000f4013a00 >>
[PACKET] [ CH:25|CLK:1652550303.553179|RSSI:0dBm ] << BLE - Control PDU Packet | type=LL_CONNECTION_UPDATE_REQ | data=02020027000000f4013a00 >>
[PACKET] [ CH:25|CLK:1652550303.564698|RSSI:0dBm ] << BLE - Exchange MTU Response Packet >>
[PACKET] [ CH:25|CLK:1652550303.564698|RSSI:0dBm ] << BLE - Exchange MTU Response Packet >>
[PACKET] [ CH:36|CLK:1652550303.707349|RSSI:0dBm ] << BLE - Write Request Packet | handle=0x2b | value=0100 >>
[PACKET] [ CH:36|CLK:1652550303.707349|RSSI:0dBm ] << BLE - Write Request Packet | handle=0x2b | value=0100 >>
[PACKET] [ CH:6|CLK:1652550303.753753|RSSI:0dBm ] << BLE - Write Response Packet >>
[PACKET] [ CH:6|CLK:1652550303.753753|RSSI:0dBm ] << BLE - Write Response Packet >>
[PACKET] [ CH:14|CLK:1652550303.899858|RSSI:0dBm ] << BLE - Write Request Packet | handle=0x2a | value=504f5752 >>
[PACKET] [ CH:14|CLK:1652550303.899858|RSSI:0dBm ] << BLE - Write Request Packet | handle=0x2a | value=504f5752 >>
[PACKET] [ CH:0|CLK:1652550303.946645|RSSI:0dBm ] << BLE - Write Response Packet >>
[PACKET] [ CH:0|CLK:1652550303.946645|RSSI:0dBm ] << BLE - Write Response Packet >>
[PACKET] [ CH:7|CLK:1652550303.9965|RSSI:0dBm ] << BLE - Write Request Packet | handle=0x2b | value=0000 >>
[PACKET] [ CH:7|CLK:1652550303.9965|RSSI:0dBm ] << BLE - Write Request Packet | handle=0x2b | value=0000 >>
[PACKET] [ CH:22|CLK:1652550304.052342|RSSI:0dBm ] << BLE - Write Response Packet >>
[PACKET] [ CH:22|CLK:1652550304.052342|RSSI:0dBm ] << BLE - Write Response Packet >>
[PACKET] [ CH:23|CLK:1652550304.298538|RSSI:0dBm ] << BLE - Control PDU Packet | type=LL_CHANNEL_MAP_REQ | data=feffffff0f5400 >>
[PACKET] [ CH:23|CLK:1652550304.298538|RSSI:0dBm ] << BLE - Control PDU Packet | type=LL_CHANNEL_MAP_REQ | data=feffffff0f5400 >>
[PACKET] [ CH:25|CLK:1652550304.77912|RSSI:0dBm ] << BLE - Write Request Packet | handle=0x2b | value=0100 >>
[PACKET] [ CH:25|CLK:1652550304.77912|RSSI:0dBm ] << BLE - Write Request Packet | handle=0x2b | value=0100 >>
[PACKET] [ CH:3|CLK:1652550304.827142|RSSI:0dBm ] << BLE - Write Response Packet >>
[PACKET] [ CH:3|CLK:1652550304.827142|RSSI:0dBm ] << BLE - Write Response Packet >>
[PACKET] [ CH:18|CLK:1652550304.875883|RSSI:0dBm ] << BLE - Write Request Packet | handle=0x2a | value=56455253 >>
[PACKET] [ CH:18|CLK:1652550304.875883|RSSI:0dBm ] << BLE - Write Request Packet | handle=0x2a | value=56455253 >>
[PACKET] [ CH:11|CLK:1652550304.969786|RSSI:0dBm ] << BLE - Write Response Packet >>
[PACKET] [ CH:11|CLK:1652550304.969786|RSSI:0dBm ] << BLE - Write Response Packet >>
[PACKET] [ CH:26|CLK:1652550305.019388|RSSI:0dBm ] << BLE - Write Request Packet | handle=0x2b | value=0000 >>
[PACKET] [ CH:26|CLK:1652550305.019388|RSSI:0dBm ] << BLE - Write Request Packet | handle=0x2b | value=0000 >>
[PACKET] [ CH:4|CLK:1652550305.066164|RSSI:0dBm ] << BLE - Write Response Packet >>
[PACKET] [ CH:4|CLK:1652550305.066164|RSSI:0dBm ] << BLE - Write Response Packet >>
[PACKET] [ CH:9|CLK:1652550306.303077|RSSI:0dBm ] << BLE - Write Request Packet | handle=0x2a | value=4f50545320303837303730 >>
[PACKET] [ CH:9|CLK:1652550306.303077|RSSI:0dBm ] << BLE - Write Request Packet | handle=0x2a | value=4f50545320303837303730 >>
[PACKET] [ CH:23|CLK:1652550307.902771|RSSI:0dBm ] << BLE - Write Request Packet | handle=0x2a | value=4f50545320303837303235 >>
[PACKET] [ CH:23|CLK:1652550307.902771|RSSI:0dBm ] << BLE - Write Request Packet | handle=0x2a | value=4f50545320303837303235 >>
[PACKET] [ CH:1|CLK:1652550307.946916|RSSI:0dBm ] << BLE - Write Response Packet >>
[PACKET] [ CH:1|CLK:1652550307.946916|RSSI:0dBm ] << BLE - Write Response Packet >>
[PACKET] [ CH:23|CLK:1652550309.708607|RSSI:0dBm ] << BLE - Write Request Packet | handle=0x2b | value=0100 >>
[PACKET] [ CH:23|CLK:1652550309.708607|RSSI:0dBm ] << BLE - Write Request Packet | handle=0x2b | value=0100 >>
[PACKET] [ CH:1|CLK:1652550309.755634|RSSI:0dBm ] << BLE - Write Response Packet >>
[PACKET] [ CH:1|CLK:1652550309.755634|RSSI:0dBm ] << BLE - Write Response Packet >>
[PACKET] [ CH:31|CLK:1652550309.853451|RSSI:0dBm ] << BLE - Write Request Packet | handle=0x2a | value=4252495420303135 >>
[PACKET] [ CH:31|CLK:1652550309.853451|RSSI:0dBm ] << BLE - Write Request Packet | handle=0x2a | value=4252495420303135 >>
[PACKET] [ CH:9|CLK:1652550309.900801|RSSI:0dBm ] << BLE - Write Response Packet >>
[PACKET] [ CH:9|CLK:1652550309.900801|RSSI:0dBm ] << BLE - Write Response Packet >>
[PACKET] [ CH:7|CLK:1652550311.212885|RSSI:0dBm ] << BLE - Write Request Packet | handle=0x2b | value=0100 >>
[PACKET] [ CH:7|CLK:1652550311.212885|RSSI:0dBm ] << BLE - Write Request Packet | handle=0x2b | value=0100 >>
[PACKET] [ CH:22|CLK:1652550311.256122|RSSI:0dBm ] << BLE - Write Response Packet >>
[PACKET] [ CH:22|CLK:1652550311.256122|RSSI:0dBm ] << BLE - Write Response Packet >>
[PACKET] [ CH:8|CLK:1652550311.465469|RSSI:0dBm ] << BLE - Write Request Packet | handle=0x2a | value=4252495420303830 >>
[PACKET] [ CH:8|CLK:1652550311.465469|RSSI:0dBm ] << BLE - Write Request Packet | handle=0x2a | value=4252495420303830 >>
[PACKET] [ CH:23|CLK:1652550311.515853|RSSI:0dBm ] << BLE - Write Response Packet >>
[PACKET] [ CH:23|CLK:1652550311.515853|RSSI:0dBm ] << BLE - Write Response Packet >>
[PACKET] [ CH:1|CLK:1652550311.564399|RSSI:0dBm ] << BLE - Write Request Packet | handle=0x2b | value=0000 >>
[PACKET] [ CH:1|CLK:1652550311.564399|RSSI:0dBm ] << BLE - Write Request Packet | handle=0x2b | value=0000 >>
[PACKET] [ CH:16|CLK:1652550311.611261|RSSI:0dBm ] << BLE - Write Response Packet >>
[PACKET] [ CH:16|CLK:1652550311.611261|RSSI:0dBm ] << BLE - Write Response Packet >>
[PACKET] [ CH:6|CLK:1652550312.783998|RSSI:0dBm ] << BLE - Write Request Packet | handle=0x2a | value=4f50545320313238303235 >>
[PACKET] [ CH:6|CLK:1652550312.783998|RSSI:0dBm ] << BLE - Write Request Packet | handle=0x2a | value=4f50545320313238303235 >>
[PACKET] [ CH:21|CLK:1652550312.829288|RSSI:0dBm ] << BLE - Write Response Packet >>
[PACKET] [ CH:21|CLK:1652550312.829288|RSSI:0dBm ] << BLE - Write Response Packet >>
[PACKET] [ CH:18|CLK:1652550313.903167|RSSI:0dBm ] << BLE - Write Request Packet | handle=0x2a | value=4f50545320313238313030 >>
[PACKET] [ CH:18|CLK:1652550313.903167|RSSI:0dBm ] << BLE - Write Request Packet | handle=0x2a | value=4f50545320313238313030 >>
[PACKET] [ CH:33|CLK:1652550313.949275|RSSI:0dBm ] << BLE - Write Response Packet >>
[PACKET] [ CH:33|CLK:1652550313.949275|RSSI:0dBm ] << BLE - Write Response Packet >>
[PACKET] [ CH:29|CLK:1652550316.584195|RSSI:0dBm ] << BLE - Write Request Packet | handle=0x2a | value=4f50545320303336313030 >>
[PACKET] [ CH:29|CLK:1652550316.584195|RSSI:0dBm ] << BLE - Write Request Packet | handle=0x2a | value=4f50545320303336313030 >>
[PACKET] [ CH:7|CLK:1652550316.630643|RSSI:0dBm ] << BLE - Write Response Packet >>
[PACKET] [ CH:7|CLK:1652550316.630643|RSSI:0dBm ] << BLE - Write Response Packet >>
[PACKET] [ CH:10|CLK:1652550317.356799|RSSI:0dBm ] << BLE - Control PDU Packet | type=LL_CHANNEL_MAP_REQ | data=feffff0f006001 >>
[PACKET] [ CH:10|CLK:1652550317.356799|RSSI:0dBm ] << BLE - Control PDU Packet | type=LL_CHANNEL_MAP_REQ | data=feffff0f006001 >>
[PACKET] [ CH:23|CLK:1652550318.730289|RSSI:0dBm ] << BLE - Write Request Packet | handle=0x2a | value=4f50545320313830313030 >>
[PACKET] [ CH:23|CLK:1652550318.730289|RSSI:0dBm ] << BLE - Write Request Packet | handle=0x2a | value=4f50545320313830313030 >>
[PACKET] [ CH:1|CLK:1652550318.777329|RSSI:0dBm ] << BLE - Write Response Packet >>
[PACKET] [ CH:1|CLK:1652550318.777329|RSSI:0dBm ] << BLE - Write Response Packet >>
[PACKET] [ CH:9|CLK:1652550319.855022|RSSI:0dBm ] << BLE - Write Request Packet | handle=0x2a | value=4f50545320313434313030 >>
[PACKET] [ CH:9|CLK:1652550319.855022|RSSI:0dBm ] << BLE - Write Request Packet | handle=0x2a | value=4f50545320313434313030 >>
[PACKET] [ CH:13|CLK:1652550319.89715|RSSI:0dBm ] << BLE - Write Response Packet >>
[PACKET] [ CH:13|CLK:1652550319.89715|RSSI:0dBm ] << BLE - Write Response Packet >>
[PACKET] [ CH:16|CLK:1652550320.623335|RSSI:0dBm ] << BLE - Write Request Packet | handle=0x2a | value=4f50545320323138313030 >>
[PACKET] [ CH:16|CLK:1652550320.623335|RSSI:0dBm ] << BLE - Write Request Packet | handle=0x2a | value=4f50545320323138313030 >>
[PACKET] [ CH:5|CLK:1652550320.667985|RSSI:0dBm ] << BLE - Write Response Packet >>
[PACKET] [ CH:5|CLK:1652550320.667985|RSSI:0dBm ] << BLE - Write Response Packet >>
[PACKET] [ CH:23|CLK:1652550322.337173|RSSI:0dBm ] << BLE - Write Request Packet | handle=0x2a | value=4f50545320303935313030 >>
[PACKET] [ CH:23|CLK:1652550322.337173|RSSI:0dBm ] << BLE - Write Request Packet | handle=0x2a | value=4f50545320303935313030 >>
[PACKET] [ CH:1|CLK:1652550322.377057|RSSI:0dBm ] << BLE - Write Response Packet >>
[PACKET] [ CH:1|CLK:1652550322.377057|RSSI:0dBm ] << BLE - Write Response Packet >>
[PACKET] [ CH:8|CLK:1652550328.624117|RSSI:0dBm ] << BLE - Write Request Packet | handle=0x2a | value=4f50545320303935313030 >>
[PACKET] [ CH:8|CLK:1652550328.624117|RSSI:0dBm ] << BLE - Write Request Packet | handle=0x2a | value=4f50545320303935313030 >>
[PACKET] [ CH:12|CLK:1652550328.665547|RSSI:0dBm ] << BLE - Write Response Packet >>
[PACKET] [ CH:12|CLK:1652550328.665547|RSSI:0dBm ] << BLE - Write Response Packet >>
[PACKET] [ CH:9|CLK:1652550328.86362|RSSI:0dBm ] << BLE - Write Request Packet | handle=0x2a | value=504154542031303031 >>
[PACKET] [ CH:9|CLK:1652550328.86362|RSSI:0dBm ] << BLE - Write Request Packet | handle=0x2a | value=504154542031303031 >>
[PACKET] [ CH:14|CLK:1652550329.148097|RSSI:0dBm ] << BLE - Write Response Packet >>
[PACKET] [ CH:14|CLK:1652550329.148097|RSSI:0dBm ] << BLE - Write Response Packet >>
[PACKET] [ CH:3|CLK:1652550331.888676|RSSI:0dBm ] << BLE - Write Request Packet | handle=0x2a | value=4f50545320303935313030 >>
[PACKET] [ CH:3|CLK:1652550331.888676|RSSI:0dBm ] << BLE - Write Request Packet | handle=0x2a | value=4f50545320303935313030 >>
[PACKET] [ CH:18|CLK:1652550331.930285|RSSI:0dBm ] << BLE - Write Response Packet >>
[PACKET] [ CH:18|CLK:1652550331.930285|RSSI:0dBm ] << BLE - Write Response Packet >>
[PACKET] [ CH:26|CLK:1652550332.080006|RSSI:0dBm ] << BLE - Write Request Packet | handle=0x2a | value=504154542031303032 >>
[PACKET] [ CH:26|CLK:1652550332.080006|RSSI:0dBm ] << BLE - Write Request Packet | handle=0x2a | value=504154542031303032 >>
[PACKET] [ CH:12|CLK:1652550332.269332|RSSI:0dBm ] << BLE - Write Response Packet >>
[PACKET] [ CH:12|CLK:1652550332.269332|RSSI:0dBm ] << BLE - Write Response Packet >>
[PACKET] [ CH:10|CLK:1652550336.321208|RSSI:0dBm ] << BLE - Write Request Packet | handle=0x2a | value=4f50545320303935313030 >>
[PACKET] [ CH:10|CLK:1652550336.321208|RSSI:0dBm ] << BLE - Write Request Packet | handle=0x2a | value=4f50545320303935313030 >>
[PACKET] [ CH:14|CLK:1652550336.366779|RSSI:0dBm ] << BLE - Write Response Packet >>
[PACKET] [ CH:14|CLK:1652550336.366779|RSSI:0dBm ] << BLE - Write Response Packet >>
[PACKET] [ CH:1|CLK:1652550336.573737|RSSI:0dBm ] << BLE - Write Request Packet | handle=0x2a | value=504154542031303033 >>
[PACKET] [ CH:1|CLK:1652550336.573737|RSSI:0dBm ] << BLE - Write Request Packet | handle=0x2a | value=504154542031303033 >>
[PACKET] [ CH:23|CLK:1652550336.765378|RSSI:0dBm ] << BLE - Write Response Packet >>
[PACKET] [ CH:23|CLK:1652550336.765378|RSSI:0dBm ] << BLE - Write Response Packet >>
[PACKET] [ CH:19|CLK:1652550344.810009|RSSI:0dBm ] << BLE - Write Request Packet | handle=0x2a | value=4f50545320303935313030 >>
[PACKET] [ CH:19|CLK:1652550344.810009|RSSI:0dBm ] << BLE - Write Request Packet | handle=0x2a | value=4f50545320303935313030 >>
[PACKET] [ CH:8|CLK:1652550344.85495|RSSI:0dBm ] << BLE - Write Response Packet >>
[PACKET] [ CH:8|CLK:1652550344.85495|RSSI:0dBm ] << BLE - Write Response Packet >>
[PACKET] [ CH:20|CLK:1652550345.056905|RSSI:0dBm ] << BLE - Write Request Packet | handle=0x2a | value=504154542031303034 >>
[PACKET] [ CH:20|CLK:1652550345.056905|RSSI:0dBm ] << BLE - Write Request Packet | handle=0x2a | value=504154542031303034 >>
[PACKET] [ CH:6|CLK:1652550345.245626|RSSI:0dBm ] << BLE - Write Response Packet >>
[PACKET] [ CH:6|CLK:1652550345.245626|RSSI:0dBm ] << BLE - Write Response Packet >>
[PACKET] [ CH:4|CLK:1652550350.175936|RSSI:0dBm ] << BLE - Write Request Packet | handle=0x2a | value=4f50545320303935313030 >>
[PACKET] [ CH:4|CLK:1652550350.175936|RSSI:0dBm ] << BLE - Write Request Packet | handle=0x2a | value=4f50545320303935313030 >>
[PACKET] [ CH:19|CLK:1652550350.221909|RSSI:0dBm ] << BLE - Write Response Packet >>
[PACKET] [ CH:19|CLK:1652550350.221909|RSSI:0dBm ] << BLE - Write Response Packet >>
[PACKET] [ CH:20|CLK:1652550350.466696|RSSI:0dBm ] << BLE - Write Request Packet | handle=0x2a | value=504154542031303035 >>
[PACKET] [ CH:20|CLK:1652550350.466696|RSSI:0dBm ] << BLE - Write Request Packet | handle=0x2a | value=504154542031303035 >>
[PACKET] [ CH:6|CLK:1652550350.65572|RSSI:0dBm ] << BLE - Write Response Packet >>
[PACKET] [ CH:6|CLK:1652550350.65572|RSSI:0dBm ] << BLE - Write Response Packet >>
[PACKET] [ CH:22|CLK:1652550354.562939|RSSI:0dBm ] << BLE - Write Request Packet | handle=0x2a | value=4f50545320303935313030 >>
[PACKET] [ CH:22|CLK:1652550354.562939|RSSI:0dBm ] << BLE - Write Request Packet | handle=0x2a | value=4f50545320303935313030 >>
[PACKET] [ CH:1|CLK:1652550354.611259|RSSI:0dBm ] << BLE - Write Request Packet | handle=0x2a | value=4f50545320303935313030 >>
[PACKET] [ CH:1|CLK:1652550354.611259|RSSI:0dBm ] << BLE - Write Request Packet | handle=0x2a | value=4f50545320303935313030 >>
[PACKET] [ CH:15|CLK:1652550354.655146|RSSI:0dBm ] << BLE - Write Response Packet >>
[PACKET] [ CH:15|CLK:1652550354.655146|RSSI:0dBm ] << BLE - Write Response Packet >>
[PACKET] [ CH:23|CLK:1652550354.802464|RSSI:0dBm ] << BLE - Write Request Packet | handle=0x2a | value=504154542031303036 >>
[PACKET] [ CH:23|CLK:1652550354.802464|RSSI:0dBm ] << BLE - Write Request Packet | handle=0x2a | value=504154542031303036 >>
[PACKET] [ CH:9|CLK:1652550354.992179|RSSI:0dBm ] << BLE - Write Response Packet >>
[PACKET] [ CH:9|CLK:1652550354.992179|RSSI:0dBm ] << BLE - Write Response Packet >>
[PACKET] [ CH:23|CLK:1652550363.827611|RSSI:0dBm ] << BLE - Write Request Packet | handle=0x2a | value=4f50545320303935313030 >>
[PACKET] [ CH:23|CLK:1652550363.827611|RSSI:0dBm ] << BLE - Write Request Packet | handle=0x2a | value=4f50545320303935313030 >>
[PACKET] [ CH:1|CLK:1652550363.873434|RSSI:0dBm ] << BLE - Write Response Packet >>
[PACKET] [ CH:1|CLK:1652550363.873434|RSSI:0dBm ] << BLE - Write Response Packet >>
[PACKET] [ CH:24|CLK:1652550364.06864|RSSI:0dBm ] << BLE - Write Request Packet | handle=0x2a | value=504154542031303037 >>
[PACKET] [ CH:24|CLK:1652550364.06864|RSSI:0dBm ] << BLE - Write Request Packet | handle=0x2a | value=504154542031303037 >>
[PACKET] [ CH:10|CLK:1652550364.257442|RSSI:0dBm ] << BLE - Write Response Packet >>
[PACKET] [ CH:10|CLK:1652550364.257442|RSSI:0dBm ] << BLE - Write Response Packet >>
[PACKET] [ CH:9|CLK:1652550370.356123|RSSI:0dBm ] << BLE - Write Request Packet | handle=0x2a | value=4f50545320303935313030 >>
[PACKET] [ CH:9|CLK:1652550370.356123|RSSI:0dBm ] << BLE - Write Request Packet | handle=0x2a | value=4f50545320303935313030 >>
[PACKET] [ CH:13|CLK:1652550370.401561|RSSI:0dBm ] << BLE - Write Response Packet >>
[PACKET] [ CH:13|CLK:1652550370.401561|RSSI:0dBm ] << BLE - Write Response Packet >>
[PACKET] [ CH:21|CLK:1652550370.549858|RSSI:0dBm ] << BLE - Write Request Packet | handle=0x2a | value=504154542031303038 >>
[PACKET] [ CH:21|CLK:1652550370.549858|RSSI:0dBm ] << BLE - Write Request Packet | handle=0x2a | value=504154542031303038 >>
[PACKET] [ CH:7|CLK:1652550370.736933|RSSI:0dBm ] << BLE - Write Response Packet >>
[PACKET] [ CH:7|CLK:1652550370.736933|RSSI:0dBm ] << BLE - Write Response Packet >>
[PACKET] [ CH:25|CLK:1652550378.742092|RSSI:0dBm ] << BLE - Write Request Packet | handle=0x2a | value=504154542031303039 >>
[PACKET] [ CH:25|CLK:1652550378.742092|RSSI:0dBm ] << BLE - Write Request Packet | handle=0x2a | value=504154542031303039 >>
[PACKET] [ CH:11|CLK:1652550378.929982|RSSI:0dBm ] << BLE - Write Response Packet >>
[PACKET] [ CH:11|CLK:1652550378.929982|RSSI:0dBm ] << BLE - Write Response Packet >>
[PACKET] [ CH:21|CLK:1652550384.982304|RSSI:0dBm ] << BLE - Write Request Packet | handle=0x2a | value=4f50545320303935313030 >>
[PACKET] [ CH:21|CLK:1652550384.982304|RSSI:0dBm ] << BLE - Write Request Packet | handle=0x2a | value=4f50545320303935313030 >>
[PACKET] [ CH:10|CLK:1652550385.0265|RSSI:0dBm ] << BLE - Write Response Packet >>
[PACKET] [ CH:10|CLK:1652550385.0265|RSSI:0dBm ] << BLE - Write Response Packet >>
[PACKET] [ CH:7|CLK:1652550385.17422|RSSI:0dBm ] << BLE - Write Request Packet | handle=0x2a | value=504154542031303130 >>
[PACKET] [ CH:7|CLK:1652550385.17422|RSSI:0dBm ] << BLE - Write Request Packet | handle=0x2a | value=504154542031303130 >>
[PACKET] [ CH:4|CLK:1652550385.362626|RSSI:0dBm ] << BLE - Write Response Packet >>
[PACKET] [ CH:4|CLK:1652550385.362626|RSSI:0dBm ] << BLE - Write Response Packet >>
[PACKET] [ CH:23|CLK:1652550390.876862|RSSI:0dBm ] << BLE - Write Request Packet | handle=0x2a | value=4f50545320303935313030 >>
[PACKET] [ CH:23|CLK:1652550390.876862|RSSI:0dBm ] << BLE - Write Request Packet | handle=0x2a | value=4f50545320303935313030 >>
[PACKET] [ CH:1|CLK:1652550390.912442|RSSI:0dBm ] << BLE - Write Response Packet >>
[PACKET] [ CH:1|CLK:1652550390.912442|RSSI:0dBm ] << BLE - Write Response Packet >>
[PACKET] [ CH:24|CLK:1652550391.126512|RSSI:0dBm ] << BLE - Write Request Packet | handle=0x2a | value=504154542031303131 >>
[PACKET] [ CH:24|CLK:1652550391.126512|RSSI:0dBm ] << BLE - Write Request Packet | handle=0x2a | value=504154542031303131 >>
[PACKET] [ CH:6|CLK:1652550391.268101|RSSI:0dBm ] << BLE - Write Response Packet >>
[PACKET] [ CH:6|CLK:1652550391.268101|RSSI:0dBm ] << BLE - Write Response Packet >>
[PACKET] [ CH:8|CLK:1652550394.439959|RSSI:0dBm ] << BLE - Write Request Packet | handle=0x2a | value=4f50545320303935313030 >>
[PACKET] [ CH:8|CLK:1652550394.439959|RSSI:0dBm ] << BLE - Write Request Packet | handle=0x2a | value=4f50545320303935313030 >>
[PACKET] [ CH:23|CLK:1652550394.480612|RSSI:0dBm ] << BLE - Write Response Packet >>
[PACKET] [ CH:23|CLK:1652550394.480612|RSSI:0dBm ] << BLE - Write Response Packet >>
[PACKET] [ CH:5|CLK:1652550394.632211|RSSI:0dBm ] << BLE - Write Request Packet | handle=0x2a | value=504154542031303132 >>
[PACKET] [ CH:5|CLK:1652550394.632211|RSSI:0dBm ] << BLE - Write Request Packet | handle=0x2a | value=504154542031303132 >>
[PACKET] [ CH:6|CLK:1652550394.86802|RSSI:0dBm ] << BLE - Write Response Packet >>
[PACKET] [ CH:6|CLK:1652550394.86802|RSSI:0dBm ] << BLE - Write Response Packet >>
[PACKET] [ CH:17|CLK:1652550398.437573|RSSI:0dBm ] << BLE - Control PDU Packet | type=LL_CHANNEL_MAP_REQ | data=fe1fc70700df07 >>
[PACKET] [ CH:17|CLK:1652550398.437573|RSSI:0dBm ] << BLE - Control PDU Packet | type=LL_CHANNEL_MAP_REQ | data=fe1fc70700df07 >>
[PACKET] [ CH:9|CLK:1652550401.114312|RSSI:0dBm ] << BLE - Write Request Packet | handle=0x2a | value=4f50545320303935313030 >>
[PACKET] [ CH:9|CLK:1652550401.114312|RSSI:0dBm ] << BLE - Write Request Packet | handle=0x2a | value=4f50545320303935313030 >>
[PACKET] [ CH:6|CLK:1652550401.155319|RSSI:0dBm ] << BLE - Write Response Packet >>
[PACKET] [ CH:6|CLK:1652550401.155319|RSSI:0dBm ] << BLE - Write Response Packet >>
[PACKET] [ CH:18|CLK:1652550401.303332|RSSI:0dBm ] << BLE - Write Request Packet | handle=0x2a | value=504154542031303135 >>
[PACKET] [ CH:18|CLK:1652550401.303332|RSSI:0dBm ] << BLE - Write Request Packet | handle=0x2a | value=504154542031303135 >>
[PACKET] [ CH:1|CLK:1652550401.506381|RSSI:0dBm ] << BLE - Write Response Packet >>
[PACKET] [ CH:1|CLK:1652550401.506381|RSSI:0dBm ] << BLE - Write Response Packet >>
[PACKET] [ CH:26|CLK:1652550402.531064|RSSI:0dBm ] << BLE - Write Request Packet | handle=0x2a | value=4f50545320303935313030 >>
[PACKET] [ CH:26|CLK:1652550402.531064|RSSI:0dBm ] << BLE - Write Request Packet | handle=0x2a | value=4f50545320303935313030 >>
[PACKET] [ CH:18|CLK:1652550402.57822|RSSI:0dBm ] << BLE - Write Response Packet >>
[PACKET] [ CH:18|CLK:1652550402.57822|RSSI:0dBm ] << BLE - Write Response Packet >>
[PACKET] [ CH:1|CLK:1652550402.775404|RSSI:0dBm ] << BLE - Write Request Packet | handle=0x2a | value=504154542031303133 >>
[PACKET] [ CH:1|CLK:1652550402.775404|RSSI:0dBm ] << BLE - Write Request Packet | handle=0x2a | value=504154542031303133 >>
[PACKET] [ CH:23|CLK:1652550403.061037|RSSI:0dBm ] << BLE - Write Response Packet >>
[PACKET] [ CH:23|CLK:1652550403.061037|RSSI:0dBm ] << BLE - Write Response Packet >>
[PACKET] [ CH:18|CLK:1652550403.106151|RSSI:0dBm ] << BLE - Write Request Packet | handle=0x2b | value=0100 >>
[PACKET] [ CH:18|CLK:1652550403.106151|RSSI:0dBm ] << BLE - Write Request Packet | handle=0x2b | value=0100 >>
[PACKET] [ CH:10|CLK:1652550403.154933|RSSI:0dBm ] << BLE - Write Response Packet >>
[PACKET] [ CH:10|CLK:1652550403.154933|RSSI:0dBm ] << BLE - Write Response Packet >>
[PACKET] [ CH:7|CLK:1652550403.206629|RSSI:0dBm ] << BLE - Write Request Packet | handle=0x2a | value=504f5752 >>
[PACKET] [ CH:7|CLK:1652550403.206629|RSSI:0dBm ] << BLE - Write Request Packet | handle=0x2a | value=504f5752 >>
[PACKET] [ CH:22|CLK:1652550403.252402|RSSI:0dBm ] << BLE - Write Response Packet >>
[PACKET] [ CH:22|CLK:1652550403.252402|RSSI:0dBm ] << BLE - Write Response Packet >>
[PACKET] [ CH:1|CLK:1652550403.30255|RSSI:0dBm ] << BLE - Write Request Packet | handle=0x2b | value=0000 >>
[PACKET] [ CH:1|CLK:1652550403.30255|RSSI:0dBm ] << BLE - Write Request Packet | handle=0x2b | value=0000 >>
[PACKET] [ CH:22|CLK:1652550403.348761|RSSI:0dBm ] << BLE - Write Response Packet >>
[PACKET] [ CH:22|CLK:1652550403.348761|RSSI:0dBm ] << BLE - Write Response Packet >>
[PACKET] [ CH:26|CLK:1652550407.849865|RSSI:0dBm ] << BLE - Write Request Packet | handle=0x2a | value=4f50545320303935313030 >>
[PACKET] [ CH:26|CLK:1652550407.849865|RSSI:0dBm ] << BLE - Write Request Packet | handle=0x2a | value=4f50545320303935313030 >>
[PACKET] [ CH:4|CLK:1652550407.8923|RSSI:0dBm ] << BLE - Write Response Packet >>
[PACKET] [ CH:4|CLK:1652550407.8923|RSSI:0dBm ] << BLE - Write Response Packet >>
[PACKET] [ CH:8|CLK:1652550408.087594|RSSI:0dBm ] << BLE - Write Request Packet | handle=0x2a | value=504154542031303134 >>
[PACKET] [ CH:8|CLK:1652550408.087594|RSSI:0dBm ] << BLE - Write Request Packet | handle=0x2a | value=504154542031303134 >>
[PACKET] [ CH:6|CLK:1652550408.373264|RSSI:0dBm ] << BLE - Write Response Packet >>
[PACKET] [ CH:6|CLK:1652550408.373264|RSSI:0dBm ] << BLE - Write Response Packet >>
[PACKET] [ CH:18|CLK:1652550415.209922|RSSI:0dBm ] << BLE - Write Request Packet | handle=0x2a | value=4f50545320303935313030 >>
[PACKET] [ CH:18|CLK:1652550415.209922|RSSI:0dBm ] << BLE - Write Request Packet | handle=0x2a | value=4f50545320303935313030 >>
[PACKET] [ CH:12|CLK:1652550415.251621|RSSI:0dBm ] << BLE - Write Response Packet >>
[PACKET] [ CH:12|CLK:1652550415.251621|RSSI:0dBm ] << BLE - Write Response Packet >>
[PACKET] [ CH:22|CLK:1652550415.449303|RSSI:0dBm ] << BLE - Write Request Packet | handle=0x2a | value=504154542031303135 >>
[PACKET] [ CH:22|CLK:1652550415.449303|RSSI:0dBm ] << BLE - Write Request Packet | handle=0x2a | value=504154542031303135 >>
[PACKET] [ CH:2|CLK:1652550415.639698|RSSI:0dBm ] << BLE - Write Response Packet >>
[PACKET] [ CH:2|CLK:1652550415.639698|RSSI:0dBm ] << BLE - Write Response Packet >>
[PACKET] [ CH:6|CLK:1652550421.004019|RSSI:0dBm ] << BLE - Write Request Packet | handle=0x2a | value=4f50545320303935313030 >>
[PACKET] [ CH:6|CLK:1652550421.004019|RSSI:0dBm ] << BLE - Write Request Packet | handle=0x2a | value=4f50545320303935313030 >>
[PACKET] [ CH:2|CLK:1652550421.045738|RSSI:0dBm ] << BLE - Write Response Packet >>
[PACKET] [ CH:2|CLK:1652550421.045738|RSSI:0dBm ] << BLE - Write Response Packet >>
[PACKET] [ CH:7|CLK:1652550421.242928|RSSI:0dBm ] << BLE - Write Request Packet | handle=0x2a | value=504154542031303137 >>
[PACKET] [ CH:7|CLK:1652550421.242928|RSSI:0dBm ] << BLE - Write Request Packet | handle=0x2a | value=504154542031303137 >>
[PACKET] [ CH:11|CLK:1652550421.44581|RSSI:0dBm ] << BLE - Write Response Packet >>
[PACKET] [ CH:11|CLK:1652550421.44581|RSSI:0dBm ] << BLE - Write Response Packet >>
[PACKET] [ CH:23|CLK:1652550421.543988|RSSI:0dBm ] << BLE - Control PDU Packet | type=LL_CHANNEL_MAP_REQ | data=fe1fc73f0eb909 >>
[PACKET] [ CH:23|CLK:1652550421.543988|RSSI:0dBm ] << BLE - Control PDU Packet | type=LL_CHANNEL_MAP_REQ | data=fe1fc73f0eb909 >>
[PACKET] [ CH:33|CLK:1652550423.97684|RSSI:0dBm ] << BLE - Write Request Packet | handle=0x2b | value=0100 >>
[PACKET] [ CH:33|CLK:1652550423.97684|RSSI:0dBm ] << BLE - Write Request Packet | handle=0x2b | value=0100 >>
[PACKET] [ CH:11|CLK:1652550424.023442|RSSI:0dBm ] << BLE - Write Response Packet >>
[PACKET] [ CH:11|CLK:1652550424.023442|RSSI:0dBm ] << BLE - Write Response Packet >>
[PACKET] [ CH:26|CLK:1652550424.075643|RSSI:0dBm ] << BLE - Write Request Packet | handle=0x2a | value=504f5752 >>
[PACKET] [ CH:26|CLK:1652550424.075643|RSSI:0dBm ] << BLE - Write Request Packet | handle=0x2a | value=504f5752 >>
[PACKET] [ CH:4|CLK:1652550424.119503|RSSI:0dBm ] << BLE - Write Response Packet >>
[PACKET] [ CH:4|CLK:1652550424.119503|RSSI:0dBm ] << BLE - Write Response Packet >>
[PACKET] [ CH:6|CLK:1652550428.907694|RSSI:0dBm ] << BLE - Write Request Packet | handle=0x2a | value=4f50545320303935313030 >>
[PACKET] [ CH:6|CLK:1652550428.907694|RSSI:0dBm ] << BLE - Write Request Packet | handle=0x2a | value=4f50545320303935313030 >>
[PACKET] [ CH:9|CLK:1652550428.95286|RSSI:0dBm ] << BLE - Write Response Packet >>
[PACKET] [ CH:9|CLK:1652550428.95286|RSSI:0dBm ] << BLE - Write Response Packet >>
[PACKET] [ CH:17|CLK:1652550429.100191|RSSI:0dBm ] << BLE - Write Request Packet | handle=0x2a | value=504154542031303138 >>
[PACKET] [ CH:17|CLK:1652550429.100191|RSSI:0dBm ] << BLE - Write Request Packet | handle=0x2a | value=504154542031303138 >>
[PACKET] [ CH:3|CLK:1652550429.287802|RSSI:0dBm ] << BLE - Write Response Packet >>
[PACKET] [ CH:3|CLK:1652550429.287802|RSSI:0dBm ] << BLE - Write Response Packet >>
[PACKET] [ CH:8|CLK:1652550434.126685|RSSI:0dBm ] << BLE - Write Request Packet | handle=0x2a | value=4f50545320303935313030 >>
[PACKET] [ CH:8|CLK:1652550434.126685|RSSI:0dBm ] << BLE - Write Request Packet | handle=0x2a | value=4f50545320303935313030 >>
[PACKET] [ CH:23|CLK:1652550434.165821|RSSI:0dBm ] << BLE - Write Response Packet >>
[PACKET] [ CH:23|CLK:1652550434.165821|RSSI:0dBm ] << BLE - Write Response Packet >>
[PACKET] [ CH:9|CLK:1652550434.365334|RSSI:0dBm ] << BLE - Write Request Packet | handle=0x2a | value=504154542031303139 >>
[PACKET] [ CH:9|CLK:1652550434.365334|RSSI:0dBm ] << BLE - Write Request Packet | handle=0x2a | value=504154542031303139 >>
[PACKET] [ CH:25|CLK:1652550434.647812|RSSI:0dBm ] << BLE - Write Response Packet >>
[PACKET] [ CH:25|CLK:1652550434.647812|RSSI:0dBm ] << BLE - Write Response Packet >>
[PACKET] [ CH:6|CLK:1652550442.654218|RSSI:0dBm ] << BLE - Write Request Packet | handle=0x2a | value=4f50545320303434313030 >>
[PACKET] [ CH:6|CLK:1652550442.654218|RSSI:0dBm ] << BLE - Write Request Packet | handle=0x2a | value=4f50545320303434313030 >>
[PACKET] [ CH:28|CLK:1652550442.698193|RSSI:0dBm ] << BLE - Write Response Packet >>
[PACKET] [ CH:28|CLK:1652550442.698193|RSSI:0dBm ] << BLE - Write Response Packet >>
[PACKET] [ CH:11|CLK:1652550444.554419|RSSI:0dBm ] << BLE - Control PDU Packet | type=LL_CHANNEL_MAP_REQ | data=fe1fc70f00910b >>
[PACKET] [ CH:11|CLK:1652550444.554419|RSSI:0dBm ] << BLE - Control PDU Packet | type=LL_CHANNEL_MAP_REQ | data=fe1fc70f00910b >>
[PACKET] [ CH:8|CLK:1652550444.94086|RSSI:0dBm ] << BLE - Write Request Packet | handle=0x2a | value=4f50545320313932313030 >>
[PACKET] [ CH:8|CLK:1652550444.94086|RSSI:0dBm ] << BLE - Write Request Packet | handle=0x2a | value=4f50545320313932313030 >>
[PACKET] [ CH:23|CLK:1652550444.986315|RSSI:0dBm ] << BLE - Write Response Packet >>
[PACKET] [ CH:23|CLK:1652550444.986315|RSSI:0dBm ] << BLE - Write Response Packet >>
[PACKET] [ CH:3|CLK:1652550447.324557|RSSI:0dBm ] << BLE - Write Request Packet | handle=0x2a | value=4f50545320313630313030 >>
[PACKET] [ CH:3|CLK:1652550447.324557|RSSI:0dBm ] << BLE - Write Request Packet | handle=0x2a | value=4f50545320313630313030 >>
[PACKET] [ CH:18|CLK:1652550447.367283|RSSI:0dBm ] << BLE - Write Response Packet >>
[PACKET] [ CH:18|CLK:1652550447.367283|RSSI:0dBm ] << BLE - Write Response Packet >>
[PACKET] [ CH:27|CLK:1652550449.574359|RSSI:0dBm ] << BLE - Write Request Packet | handle=0x2a | value=4f50545320313534313030 >>
[PACKET] [ CH:27|CLK:1652550449.574359|RSSI:0dBm ] << BLE - Write Request Packet | handle=0x2a | value=4f50545320313534313030 >>
[PACKET] [ CH:5|CLK:1652550449.621363|RSSI:0dBm ] << BLE - Write Response Packet >>
[PACKET] [ CH:5|CLK:1652550449.621363|RSSI:0dBm ] << BLE - Write Response Packet >>
[PACKET] [ CH:17|CLK:1652550451.567452|RSSI:0dBm ] << BLE - Write Request Packet | handle=0x2a | value=4f50545320313435313030 >>
[PACKET] [ CH:17|CLK:1652550451.567452|RSSI:0dBm ] << BLE - Write Request Packet | handle=0x2a | value=4f50545320313435313030 >>
[PACKET] [ CH:8|CLK:1652550451.60851|RSSI:0dBm ] << BLE - Write Response Packet >>
[PACKET] [ CH:8|CLK:1652550451.60851|RSSI:0dBm ] << BLE - Write Response Packet >>
[PACKET] [ CH:4|CLK:1652550452.990643|RSSI:0dBm ] << BLE - Write Request Packet | handle=0x2a | value=4f50545320313238313030 >>
[PACKET] [ CH:4|CLK:1652550452.990643|RSSI:0dBm ] << BLE - Write Request Packet | handle=0x2a | value=4f50545320313238313030 >>
[PACKET] [ CH:26|CLK:1652550453.032279|RSSI:0dBm ] << BLE - Write Response Packet >>
[PACKET] [ CH:26|CLK:1652550453.032279|RSSI:0dBm ] << BLE - Write Response Packet >>
[PACKET] [ CH:12|CLK:1652550458.009569|RSSI:0dBm ] << BLE - Write Request Packet | handle=0x2a | value=4f50545320313233313030 >>
[PACKET] [ CH:12|CLK:1652550458.009569|RSSI:0dBm ] << BLE - Write Request Packet | handle=0x2a | value=4f50545320313233313030 >>
[PACKET] [ CH:10|CLK:1652550458.05684|RSSI:0dBm ] << BLE - Write Response Packet >>
[PACKET] [ CH:10|CLK:1652550458.05684|RSSI:0dBm ] << BLE - Write Response Packet >>
[PACKET] [ CH:18|CLK:1652550460.005816|RSSI:0dBm ] << BLE - Write Request Packet | handle=0x2a | value=4f50545320313036313030 >>
[PACKET] [ CH:18|CLK:1652550460.005816|RSSI:0dBm ] << BLE - Write Request Packet | handle=0x2a | value=4f50545320313036313030 >>
[PACKET] [ CH:16|CLK:1652550460.043525|RSSI:0dBm ] << BLE - Write Response Packet >>
[PACKET] [ CH:16|CLK:1652550460.043525|RSSI:0dBm ] << BLE - Write Response Packet >>
[PACKET] [ CH:11|CLK:1652550463.70976|RSSI:0dBm ] << BLE - Control PDU Packet | type=LL_CHANNEL_MAP_REQ | data=ff1fc73f0e1a0d >>
[PACKET] [ CH:11|CLK:1652550463.70976|RSSI:0dBm ] << BLE - Control PDU Packet | type=LL_CHANNEL_MAP_REQ | data=ff1fc73f0e1a0d >>
[PACKET] [ CH:26|CLK:1652550463.758356|RSSI:0dBm ] << BLE - Write Request Packet | handle=0x2b | value=0100 >>
[PACKET] [ CH:26|CLK:1652550463.758356|RSSI:0dBm ] << BLE - Write Request Packet | handle=0x2b | value=0100 >>
[PACKET] [ CH:4|CLK:1652550463.803649|RSSI:0dBm ] << BLE - Write Response Packet >>
[PACKET] [ CH:4|CLK:1652550463.803649|RSSI:0dBm ] << BLE - Write Response Packet >>
[PACKET] [ CH:12|CLK:1652550463.950593|RSSI:0dBm ] << BLE - Write Request Packet | handle=0x2a | value=4252495420303830 >>
[PACKET] [ CH:12|CLK:1652550463.950593|RSSI:0dBm ] << BLE - Write Request Packet | handle=0x2a | value=4252495420303830 >>
[PACKET] [ CH:27|CLK:1652550463.996425|RSSI:0dBm ] << BLE - Write Response Packet >>
[PACKET] [ CH:27|CLK:1652550463.996425|RSSI:0dBm ] << BLE - Write Response Packet >>
[PACKET] [ CH:35|CLK:1652550464.139758|RSSI:0dBm ] << BLE - Write Response Packet >>
[PACKET] [ CH:35|CLK:1652550464.139758|RSSI:0dBm ] << BLE - Write Response Packet >>
[PACKET] [ CH:5|CLK:1652550465.2137|RSSI:0dBm ] << BLE - Write Request Packet | handle=0x2b | value=0100 >>
[PACKET] [ CH:5|CLK:1652550465.2137|RSSI:0dBm ] << BLE - Write Request Packet | handle=0x2b | value=0100 >>
[PACKET] [ CH:10|CLK:1652550465.260375|RSSI:0dBm ] << BLE - Write Response Packet >>
[PACKET] [ CH:10|CLK:1652550465.260375|RSSI:0dBm ] << BLE - Write Response Packet >>
[PACKET] [ CH:18|CLK:1652550465.421798|RSSI:0dBm ] << BLE - Write Request Packet | handle=0x2a | value=4252495420303135 >>
[PACKET] [ CH:18|CLK:1652550465.421798|RSSI:0dBm ] << BLE - Write Request Packet | handle=0x2a | value=4252495420303135 >>
[PACKET] [ CH:33|CLK:1652550465.468741|RSSI:0dBm ] << BLE - Write Response Packet >>
[PACKET] [ CH:33|CLK:1652550465.468741|RSSI:0dBm ] << BLE - Write Response Packet >>
[PACKET] [ CH:25|CLK:1652550468.925472|RSSI:0dBm ] << BLE - Write Request Packet | handle=0x2b | value=0100 >>
[PACKET] [ CH:25|CLK:1652550468.925472|RSSI:0dBm ] << BLE - Write Request Packet | handle=0x2b | value=0100 >>
[PACKET] [ CH:3|CLK:1652550468.969038|RSSI:0dBm ] << BLE - Write Response Packet >>
[PACKET] [ CH:3|CLK:1652550468.969038|RSSI:0dBm ] << BLE - Write Response Packet >>
[PACKET] [ CH:11|CLK:1652550469.118833|RSSI:0dBm ] << BLE - Write Request Packet | handle=0x2a | value=4252495420303430 >>
[PACKET] [ CH:11|CLK:1652550469.118833|RSSI:0dBm ] << BLE - Write Request Packet | handle=0x2a | value=4252495420303430 >>
[PACKET] [ CH:26|CLK:1652550469.167501|RSSI:0dBm ] << BLE - Write Response Packet >>
[PACKET] [ CH:26|CLK:1652550469.167501|RSSI:0dBm ] << BLE - Write Response Packet >>
[PACKET] [ CH:4|CLK:1652550469.213134|RSSI:0dBm ] << BLE - Write Request Packet | handle=0x2b | value=0000 >>
[PACKET] [ CH:4|CLK:1652550469.213134|RSSI:0dBm ] << BLE - Write Request Packet | handle=0x2b | value=0000 >>
[PACKET] [ CH:25|CLK:1652550469.260296|RSSI:0dBm ] << BLE - Write Response Packet >>
[PACKET] [ CH:25|CLK:1652550469.260296|RSSI:0dBm ] << BLE - Write Response Packet >>
[PACKET] [ CH:5|CLK:1652550470.635091|RSSI:0dBm ] << BLE - Write Request Packet | handle=0x2b | value=0100 >>
[PACKET] [ CH:5|CLK:1652550470.635091|RSSI:0dBm ] << BLE - Write Request Packet | handle=0x2b | value=0100 >>
[PACKET] [ CH:10|CLK:1652550470.685322|RSSI:0dBm ] << BLE - Write Response Packet >>
[PACKET] [ CH:10|CLK:1652550470.685322|RSSI:0dBm ] << BLE - Write Response Packet >>
[PACKET] [ CH:3|CLK:1652550470.783364|RSSI:0dBm ] << BLE - Write Request Packet | handle=0x2a | value=4252495420303830 >>
[PACKET] [ CH:3|CLK:1652550470.783364|RSSI:0dBm ] << BLE - Write Request Packet | handle=0x2a | value=4252495420303830 >>
[PACKET] [ CH:18|CLK:1652550470.829323|RSSI:0dBm ] << BLE - Write Response Packet >>
[PACKET] [ CH:18|CLK:1652550470.829323|RSSI:0dBm ] << BLE - Write Response Packet >>
[PACKET] [ CH:4|CLK:1652550472.190314|RSSI:0dBm ] << BLE - Write Request Packet | handle=0x2b | value=0100 >>
[PACKET] [ CH:4|CLK:1652550472.190314|RSSI:0dBm ] << BLE - Write Request Packet | handle=0x2b | value=0100 >>
[PACKET] [ CH:9|CLK:1652550472.238483|RSSI:0dBm ] << BLE - Write Response Packet >>
[PACKET] [ CH:9|CLK:1652550472.238483|RSSI:0dBm ] << BLE - Write Response Packet >>
[PACKET] [ CH:5|CLK:1652550472.431532|RSSI:0dBm ] << BLE - Write Request Packet | handle=0x2a | value=4252495420303430 >>
[PACKET] [ CH:5|CLK:1652550472.431532|RSSI:0dBm ] << BLE - Write Request Packet | handle=0x2a | value=4252495420303430 >>
[PACKET] [ CH:10|CLK:1652550472.478683|RSSI:0dBm ] << BLE - Write Response Packet >>
[PACKET] [ CH:10|CLK:1652550472.478683|RSSI:0dBm ] << BLE - Write Response Packet >>
[PACKET] [ CH:25|CLK:1652550472.526439|RSSI:0dBm ] << BLE - Write Request Packet | handle=0x2b | value=0000 >>
[PACKET] [ CH:25|CLK:1652550472.526439|RSSI:0dBm ] << BLE - Write Request Packet | handle=0x2b | value=0000 >>
[PACKET] [ CH:3|CLK:1652550472.574148|RSSI:0dBm ] << BLE - Write Response Packet >>
[PACKET] [ CH:3|CLK:1652550472.574148|RSSI:0dBm ] << BLE - Write Response Packet >>
[PACKET] [ CH:22|CLK:1652550473.597929|RSSI:0dBm ] << BLE - Write Request Packet | handle=0x2b | value=0100 >>
[PACKET] [ CH:22|CLK:1652550473.597929|RSSI:0dBm ] << BLE - Write Request Packet | handle=0x2b | value=0100 >>
[PACKET] [ CH:0|CLK:1652550473.64133|RSSI:0dBm ] << BLE - Write Response Packet >>
[PACKET] [ CH:0|CLK:1652550473.64133|RSSI:0dBm ] << BLE - Write Response Packet >>
[PACKET] [ CH:8|CLK:1652550473.806973|RSSI:0dBm ] << BLE - Write Request Packet | handle=0x2a | value=4252495420303135 >>
[PACKET] [ CH:8|CLK:1652550473.806973|RSSI:0dBm ] << BLE - Write Request Packet | handle=0x2a | value=4252495420303135 >>
[PACKET] [ CH:23|CLK:1652550473.849599|RSSI:0dBm ] << BLE - Write Response Packet >>
[PACKET] [ CH:23|CLK:1652550473.849599|RSSI:0dBm ] << BLE - Write Response Packet >>
[PACKET] [ CH:25|CLK:1652550487.308514|RSSI:0dBm ] << BLE - Write Request Packet | handle=0x2a | value=4f50545320313036313030 >>
[PACKET] [ CH:25|CLK:1652550487.308514|RSSI:0dBm ] << BLE - Write Request Packet | handle=0x2a | value=4f50545320313036313030 >>
[PACKET] [ CH:34|CLK:1652550487.355041|RSSI:0dBm ] << BLE - Write Response Packet >>
[PACKET] [ CH:34|CLK:1652550487.355041|RSSI:0dBm ] << BLE - Write Response Packet >>
[PACKET] [ CH:26|CLK:1652550487.552868|RSSI:0dBm ] << BLE - Write Request Packet | handle=0x2a | value=504154542030 >>
[PACKET] [ CH:26|CLK:1652550487.552868|RSSI:0dBm ] << BLE - Write Request Packet | handle=0x2a | value=504154542030 >>
[PACKET] [ CH:35|CLK:1652550487.598336|RSSI:0dBm ] << BLE - Write Response Packet >>
[PACKET] [ CH:35|CLK:1652550487.598336|RSSI:0dBm ] << BLE - Write Response Packet >>
[PACKET] [ CH:35|CLK:1652550491.202266|RSSI:0dBm ] << BLE - Write Request Packet | handle=0x2a | value=4f50545320313036313030 >>
[PACKET] [ CH:35|CLK:1652550491.202266|RSSI:0dBm ] << BLE - Write Request Packet | handle=0x2a | value=4f50545320313036313030 >>
[PACKET] [ CH:16|CLK:1652550491.247944|RSSI:0dBm ] << BLE - Write Response Packet >>
[PACKET] [ CH:16|CLK:1652550491.247944|RSSI:0dBm ] << BLE - Write Response Packet >>
[PACKET] [ CH:9|CLK:1652550491.440935|RSSI:0dBm ] << BLE - Write Request Packet | handle=0x2a | value=504154542035 >>
[PACKET] [ CH:9|CLK:1652550491.440935|RSSI:0dBm ] << BLE - Write Request Packet | handle=0x2a | value=504154542035 >>
[PACKET] [ CH:17|CLK:1652550491.497144|RSSI:0dBm ] << BLE - Write Response Packet >>
[PACKET] [ CH:17|CLK:1652550491.497144|RSSI:0dBm ] << BLE - Write Response Packet >>
[PACKET] [ CH:33|CLK:1652550499.732233|RSSI:0dBm ] << BLE - Write Request Packet | handle=0x2a | value=4f50545320313036313030 >>
[PACKET] [ CH:33|CLK:1652550499.732233|RSSI:0dBm ] << BLE - Write Request Packet | handle=0x2a | value=4f50545320313036313030 >>
[PACKET] [ CH:11|CLK:1652550499.772213|RSSI:0dBm ] << BLE - Write Response Packet >>
[PACKET] [ CH:11|CLK:1652550499.772213|RSSI:0dBm ] << BLE - Write Response Packet >>
[PACKET] [ CH:34|CLK:1652550499.985187|RSSI:0dBm ] << BLE - Write Request Packet | handle=0x2a | value=504154542030 >>
[PACKET] [ CH:34|CLK:1652550499.985187|RSSI:0dBm ] << BLE - Write Request Packet | handle=0x2a | value=504154542030 >>
[PACKET] [ CH:12|CLK:1652550500.031512|RSSI:0dBm ] << BLE - Write Response Packet >>
[PACKET] [ CH:12|CLK:1652550500.031512|RSSI:0dBm ] << BLE - Write Response Packet >>
[PACKET] [ CH:29|CLK:1652550504.17597|RSSI:0dBm ] << BLE - Write Request Packet | handle=0x2b | value=0100 >>
[PACKET] [ CH:29|CLK:1652550504.17597|RSSI:0dBm ] << BLE - Write Request Packet | handle=0x2b | value=0100 >>
[PACKET] [ CH:7|CLK:1652550504.225147|RSSI:0dBm ] << BLE - Write Response Packet >>
[PACKET] [ CH:7|CLK:1652550504.225147|RSSI:0dBm ] << BLE - Write Response Packet >>
[PACKET] [ CH:22|CLK:1652550504.274841|RSSI:0dBm ] << BLE - Write Request Packet | handle=0x2a | value=51554954 >>
[PACKET] [ CH:22|CLK:1652550504.274841|RSSI:0dBm ] << BLE - Write Request Packet | handle=0x2a | value=51554954 >>
[PACKET] [ CH:0|CLK:1652550504.320811|RSSI:0dBm ] << BLE - Write Response Packet >>
[PACKET] [ CH:0|CLK:1652550504.320811|RSSI:0dBm ] << BLE - Write Response Packet >>
[PACKET] [ CH:0|CLK:1652550504.340147|RSSI:0dBm ] << BLE - Control PDU Packet | type=LL_TERMINATE_IND | data=13 >>
[PACKET] [ CH:0|CLK:1652550504.340147|RSSI:0dBm ] << BLE - Control PDU Packet | type=LL_TERMINATE_IND | data=13 >>
[FAIL] Connection lost !
[INFO] Mirage process terminated !
(mirage) rambo@zb1804:~/Downloads/mirage$ 
